Exemplo com shiny
…
Attaching package: 'bslib'

The following object is masked from 'package:utils':

    page

# A tibble: 87 × 14
   nome      altura massa cor_do_cabelo cor_da_pele cor_dos_olhos ano_nascimento
   <chr>      <int> <dbl> <chr>         <chr>       <chr>                  <dbl>
 1 Luke Sky…    172    77 Loiro         Branca cla… Azul                    19  
 2 C-3PO        167    75 <NA>          Ouro        Amarelo                112  
 3 R2-D2         96    32 <NA>          Branca, Az… Vermelho                33  
 4 Darth Va…    202   136 Nenhum        Branca      Amarelo                 41.9
 5 Leia Org…    150    49 Castanho      Clara       Castanho                19  
 6 Owen Lars    178   120 Castanho, Ci… Clara       Azul                    52  
 7 Beru Whi…    165    75 Castanho      Clara       Azul                    47  
 8 R5-D4         97    32 <NA>          Branca, Ve… Vermelho                NA  
 9 Biggs Da…    183    84 Preto         Clara       Castanho                24  
10 Obi-Wan …    182    77 Ruivo, Branco Branca cla… Azul acinzen…           57  
# ℹ 77 more rows
# ℹ 7 more variables: sexo_biologico <chr>, genero <chr>, planeta_natal <chr>,
#   especie <chr>, filmes <list>, veiculos <list>, naves_espaciais <list>
…
